{
  "exclude": [
    "^(node_modules|bower_components|\\.imdone|target|build|dist|logs|flow-typed)[\\/\\\\]?|\\.(git|svn|hg|npmignore)|\\~$|\\.(jpg|png|gif|swp|ttf|otf)$"
  ],
  "watcher": true,
  "keepEmptyPriority": true,
  "code": {
    "include_lists": [
      "TODO",
      "FIXME",
      "HACK",
      "CHANGED",
      "XXX",
      "IDEA",
      "NOTE",
      "REVIEW",
      "MARK"
    ]
  },
  "lists": [],
  "marked": {
    "gfm": true,
    "tables": true,
    "breaks": false,
    "pedantic": false,
    "smartLists": true,
    "langPrefix": "language-"
  },
  "sync": {
    "id": "5a879c6c0a2fda125bc84eca",
    "name": "philoserf/placeholders",
    "useImdoneioForPriority": true
  },
  "meta": {
    "gh": {
      "urlTemplate": "https://github.com/philoserf/placeholders/issues/%s",
      "titleTemplate": "View github issue %s",
      "icon": "icon-octoface"
    }
  }
}